{
  "type": "service_account",
  "project_id": "api-8640825876244245346-296145",
  "private_key_id": "84cbefccaf9b1ed3476ea2816759fea15119bac8",
  "private_key": "-----BEGIN PRIVATE KEY-----\nMIIEvAIBADANBgkqhkiG9w0BAQEFAASCBKYwggSiAgEAAoIBAQCzcoNtfxN3L+yg\nThYS5gqkbvqdgoj2S0jdHbGngr53arAZ/x3QU6SRokopPWzks+qql7ePAbqdJ/Oy\npkiww4zRAkzWfnkFlEjfJDshYzBB7atm7vi+NM+ZddegEQ8cbz5Q6QhvvC3h9uP2\nI8v1jlJ4kZnd1ZbZAwWgRZ/AjrlXERVEp6w0PPmoxER7z7yctlbd68iVniF6EZ3o\nRTxIBwRnyyVtjyoTGOxltFdM99jDBTD87oirSKSxvPZaAyEbe5J3yfaM+catRXpf\n+snWU+c6pZgruwgwvInWcYIfsYVSnMU84+wQn2SXNnK9CSSF1ekAsfN8zwtkBXwF\nlHvBsoZ/AgMBAAECggEANpFXCAABklffc+vq6HpNuC0LRsSAE61XDe5OrKqkcrnd\nrToX/dbBj4uzU5EbQPy5GoEiT3luHwYcJDJOnnoIozI43Wz+LkUmV7yzwnZgIVw9\nqAJ5X5W9n2PnWwR0/OeTIpWKfDfUGAe00I+YISbTS1izWnLt+TXjCxbA+pQsJh5H\nGjIEHs/4jNtAbohpR0QJXxWKCWHTBszuDbctu0P8ARr8sFLtpHVUFYg8kgZu2t5u\nfPSNP6xPiP5kw0XcVfaom/vcYm1Dmqus/qCDaXwy58D/38yhzg4YWisVlQ4OesrR\ne1Xt+5jZF+H7nuizV/ojXiqa8zI2h9sEr/HOI1/U6QKBgQD225PQzik6YLQxzcZJ\nyvDWYj3xIgSGz8jck8XeQbuaOP+SZ2Duo8K1f3djjzmPqpQKNKXPzTF8IhEfZo3K\nDEMq5C8ftS0tCGTfVzSlXQoNvzUV1KoFss0Z1X6BLxiEG1ETUxl1JPa49zoa+bZr\nEBNz93YORpT1oB/o2nyzh6z3FQKBgQC6F9PeeJYjY7WFRzkEqOFAx70wx+hRFyNt\ngRTlrmib/zPOYTJUkZv1h6bc32YTicz+MrjjJwH8eKCNLtkxp8MNe2xigm6On5TV\nbS55VPQJMPzTkL/hyoJcOx8ROezNdoffg14bmColLGmw4xykJz24GVsEzTzZr3pi\nWwN1lq1sQwKBgHdzCLOhDpIQ+SCgUbKjYKZcI1zq+QXCxY72cmh5pi2aJxDQtTbE\nRxNL+plSVKgQAlJt504GHEvUsDRhi3qZNGcswyC0qod/6E+qAu+BdbvxKd7GaP8Y\n5eX6SJx6DYLfNPwE2ey1Vi1qc9NZwctMnB0hQR7nSG0Sbl5eWrkEjc2BAoGAXdlE\nbS7NMN3JHoTTuYjdyIiy3dYDUFnl8QSnIEn70ag7XTphYoroZ0PZIAy98t6M9ilo\nWo5CjyvadDkLKeKcGMGE4I086kqKibP9Ow1f4P7Gkn+udVVmttLOESbwSJIdZdhf\nbnUn1AV4688tk4+CrcSDxYEnzfSUOOQDc5rgrPcCgYBDHZuH1UsDBh8/g1ybmkde\n3FlKgSKMe1sEuuujlm3mEKASK8vdZ6ExAvCsSS27f3CtEyOR/3eqRI+iQbvobKJ4\nUq8oozur/2ssaBZJVDErZzM+kyAIVP2u+bT2jXYMhFbEgPlKGHAa940WXzVp6AHx\n/gWZNiyLBsblXw8kIm5zmw==\n-----END PRIVATE KEY-----\n",
  "client_email": "memebank-test@api-8640825876244245346-296145.iam.gserviceaccount.com",
  "client_id": "109371863248782914404",
  "auth_uri": "https://accounts.google.com/o/oauth2/auth",
  "token_uri": "https://oauth2.googleapis.com/token",
  "auth_provider_x509_cert_url": "https://www.googleapis.com/oauth2/v1/certs",
  "client_x509_cert_url": "https://www.googleapis.com/robot/v1/metadata/x509/memebank-test%40api-8640825876244245346-296145.iam.gserviceaccount.com"
}
